%YAML 1.1
%TAG !u! tag:unity3d.com,2011:
--- !u!74 &7400000
AnimationClip:
  m_ObjectHideFlags: 0
  m_CorrespondingSourceObject: {fileID: 0}
  m_PrefabInstance: {fileID: 0}
  m_PrefabAsset: {fileID: 0}
  m_Name: WaterBoy_Transformation
  serializedVersion: 6
  m_Legacy: 0
  m_Compressed: 0
  m_UseHighQualityCurve: 1
  m_RotationCurves: []
  m_CompressedRotationCurves: []
  m_EulerCurves: []
  m_PositionCurves: []
  m_ScaleCurves: []
  m_FloatCurves: []
  m_PPtrCurves:
  - curve:
    - time: 0
      value: {fileID: -1460364409555501840, guid: 98e0ee9a51008434cb1be66fcc3bff24, type: 3}
    - time: 0.083333336
      value: {fileID: 8950840995329788508, guid: 98e0ee9a51008434cb1be66fcc3bff24, type: 3}
    - time: 0.16666667
      value: {fileID: -4058301550541560650, guid: 98e0ee9a51008434cb1be66fcc3bff24, type: 3}
    - time: 0.25
      value: {fileID: 7332986950212590114, guid: 98e0ee9a51008434cb1be66fcc3bff24, type: 3}
    - time: 0.33333334
      value: {fileID: 7902805729382151979, guid: 98e0ee9a51008434cb1be66fcc3bff24, type: 3}
    - time: 0.41666666
      value: {fileID: 5057286346768814841, guid: 98e0ee9a51008434cb1be66fcc3bff24, type: 3}
    - time: 0.5
      value: {fileID: -7440443978885688236, guid: 98e0ee9a51008434cb1be66fcc3bff24, type: 3}
    - time: 0.5833333
      value: {fileID: -1363130011324293300, guid: 98e0ee9a51008434cb1be66fcc3bff24, type: 3}
    - time: 0.6666667
      value: {fileID: -3423606718341286874, guid: 98e0ee9a51008434cb1be66fcc3bff24, type: 3}
    - time: 0.75
      value: {fileID: 6044360835187743645, guid: 98e0ee9a51008434cb1be66fcc3bff24, type: 3}
    - time: 0.8333333
      value: {fileID: -7523399730589245169, guid: 98e0ee9a51008434cb1be66fcc3bff24, type: 3}
    - time: 0.9166667
      value: {fileID: 2296626378765185888, guid: 98e0ee9a51008434cb1be66fcc3bff24, type: 3}
    - time: 1
      value: {fileID: 1012572435515236172, guid: 98e0ee9a51008434cb1be66fcc3bff24, type: 3}
    attribute: m_Sprite
    path: 
    classID: 212
    script: {fileID: 0}
  m_SampleRate: 12
  m_WrapMode: 0
  m_Bounds:
    m_Center: {x: 0, y: 0, z: 0}
    m_Extent: {x: 0, y: 0, z: 0}
  m_ClipBindingConstant:
    genericBindings:
    - serializedVersion: 2
      path: 0
      attribute: 0
      script: {fileID: 0}
      typeID: 212
      customType: 23
      isPPtrCurve: 1
    pptrCurveMapping:
    - {fileID: -1460364409555501840, guid: 98e0ee9a51008434cb1be66fcc3bff24, type: 3}
    - {fileID: 8950840995329788508, guid: 98e0ee9a51008434cb1be66fcc3bff24, type: 3}
    - {fileID: -4058301550541560650, guid: 98e0ee9a51008434cb1be66fcc3bff24, type: 3}
    - {fileID: 7332986950212590114, guid: 98e0ee9a51008434cb1be66fcc3bff24, type: 3}
    - {fileID: 7902805729382151979, guid: 98e0ee9a51008434cb1be66fcc3bff24, type: 3}
    - {fileID: 5057286346768814841, guid: 98e0ee9a51008434cb1be66fcc3bff24, type: 3}
    - {fileID: -7440443978885688236, guid: 98e0ee9a51008434cb1be66fcc3bff24, type: 3}
    - {fileID: -1363130011324293300, guid: 98e0ee9a51008434cb1be66fcc3bff24, type: 3}
    - {fileID: -3423606718341286874, guid: 98e0ee9a51008434cb1be66fcc3bff24, type: 3}
    - {fileID: 6044360835187743645, guid: 98e0ee9a51008434cb1be66fcc3bff24, type: 3}
    - {fileID: -7523399730589245169, guid: 98e0ee9a51008434cb1be66fcc3bff24, type: 3}
    - {fileID: 2296626378765185888, guid: 98e0ee9a51008434cb1be66fcc3bff24, type: 3}
    - {fileID: 1012572435515236172, guid: 98e0ee9a51008434cb1be66fcc3bff24, type: 3}
  m_AnimationClipSettings:
    serializedVersion: 2
    m_AdditiveReferencePoseClip: {fileID: 0}
    m_AdditiveReferencePoseTime: 0
    m_StartTime: 0
    m_StopTime: 1.0833334
    m_OrientationOffsetY: 0
    m_Level: 0
    m_CycleOffset: 0
    m_HasAdditiveReferencePose: 0
    m_LoopTime: 0
    m_LoopBlend: 0
    m_LoopBlendOrientation: 0
    m_LoopBlendPositionY: 0
    m_LoopBlendPositionXZ: 0
    m_KeepOriginalOrientation: 0
    m_KeepOriginalPositionY: 1
    m_KeepOriginalPositionXZ: 0
    m_HeightFromFeet: 0
    m_Mirror: 0
  m_EditorCurves: []
  m_EulerEditorCurves: []
  m_HasGenericRootTransform: 0
  m_HasMotionFloatCurves: 0
  m_Events:
  - time: 1
    functionName: OnEndWaterBoyTransformation
    data: 
    objectReferenceParameter: {fileID: 0}
    floatParameter: 0
    intParameter: 0
    messageOptions: 0
