%YAML 1.1
%TAG !u! tag:unity3d.com,2011:
--- !u!1 &775561128995523761
GameObject:
  m_ObjectHideFlags: 0
  m_CorrespondingSourceObject: {fileID: 0}
  m_PrefabInstance: {fileID: 0}
  m_PrefabAsset: {fileID: 0}
  serializedVersion: 6
  m_Component:
  - component: {fileID: 4917521712183327043}
  - component: {fileID: 9035218080270390624}
  - component: {fileID: 2226311230847348730}
  m_Layer: 0
  m_Name: Layer1
  m_TagString: Untagged
  m_Icon: {fileID: 0}
  m_NavMeshLayer: 0
  m_StaticEditorFlags: 0
  m_IsActive: 1
--- !u!4 &4917521712183327043
Transform:
  m_ObjectHideFlags: 0
  m_CorrespondingSourceObject: {fileID: 0}
  m_PrefabInstance: {fileID: 0}
  m_PrefabAsset: {fileID: 0}
  m_GameObject: {fileID: 775561128995523761}
  m_LocalRotation: {x: -0, y: -0, z: -0, w: 1}
  m_LocalPosition: {x: 0, y: 0, z: 0}
  m_LocalScale: {x: 1, y: 1, z: 1}
  m_Children: []
  m_Father: {fileID: 5676941852293770979}
  m_RootOrder: 0
  m_LocalEulerAnglesHint: {x: 0, y: 0, z: 0}
--- !u!1839735485 &9035218080270390624
Tilemap:
  m_ObjectHideFlags: 0
  m_CorrespondingSourceObject: {fileID: 0}
  m_PrefabInstance: {fileID: 0}
  m_PrefabAsset: {fileID: 0}
  m_GameObject: {fileID: 775561128995523761}
  m_Enabled: 1
  m_Tiles:
  - first: {x: -1, y: -7, z: 0}
    second:
      serializedVersion: 2
      m_TileIndex: 49
      m_TileSpriteIndex: 49
      m_TileMatrixIndex: 0
      m_TileColorIndex: 0
      m_TileObjectToInstantiateIndex: 65535
      dummyAlignment: 0
      m_AllTileFlags: 1073741825
  - first: {x: 0, y: -7, z: 0}
    second:
      serializedVersion: 2
      m_TileIndex: 50
      m_TileSpriteIndex: 50
      m_TileMatrixIndex: 0
      m_TileColorIndex: 0
      m_TileObjectToInstantiateIndex: 65535
      dummyAlignment: 0
      m_AllTileFlags: 1073741825
  - first: {x: 1, y: -7, z: 0}
    second:
      serializedVersion: 2
      m_TileIndex: 51
      m_TileSpriteIndex: 51
      m_TileMatrixIndex: 0
      m_TileColorIndex: 0
      m_TileObjectToInstantiateIndex: 65535
      dummyAlignment: 0
      m_AllTileFlags: 1073741825
  - first: {x: 2, y: -7, z: 0}
    second:
      serializedVersion: 2
      m_TileIndex: 52
      m_TileSpriteIndex: 52
      m_TileMatrixIndex: 0
      m_TileColorIndex: 0
      m_TileObjectToInstantiateIndex: 65535
      dummyAlignment: 0
      m_AllTileFlags: 1073741825
  - first: {x: 3, y: -7, z: 0}
    second:
      serializedVersion: 2
      m_TileIndex: 53
      m_TileSpriteIndex: 53
      m_TileMatrixIndex: 0
      m_TileColorIndex: 0
      m_TileObjectToInstantiateIndex: 65535
      dummyAlignment: 0
      m_AllTileFlags: 1073741825
  - first: {x: 4, y: -7, z: 0}
    second:
      serializedVersion: 2
      m_TileIndex: 54
      m_TileSpriteIndex: 54
      m_TileMatrixIndex: 0
      m_TileColorIndex: 0
      m_TileObjectToInstantiateIndex: 65535
      dummyAlignment: 0
      m_AllTileFlags: 1073741825
  - first: {x: 5, y: -7, z: 0}
    second:
      serializedVersion: 2
      m_TileIndex: 55
      m_TileSpriteIndex: 55
      m_TileMatrixIndex: 0
      m_TileColorIndex: 0
      m_TileObjectToInstantiateIndex: 65535
      dummyAlignment: 0
      m_AllTileFlags: 1073741825
  - first: {x: -1, y: -6, z: 0}
    second:
      serializedVersion: 2
      m_TileIndex: 42
      m_TileSpriteIndex: 42
      m_TileMatrixIndex: 0
      m_TileColorIndex: 0
      m_TileObjectToInstantiateIndex: 65535
      dummyAlignment: 0
      m_AllTileFlags: 1073741825
  - first: {x: 0, y: -6, z: 0}
    second:
      serializedVersion: 2
      m_TileIndex: 43
      m_TileSpriteIndex: 43
      m_TileMatrixIndex: 0
      m_TileColorIndex: 0
      m_TileObjectToInstantiateIndex: 65535
      dummyAlignment: 0
      m_AllTileFlags: 1073741825
  - first: {x: 1, y: -6, z: 0}
    second:
      serializedVersion: 2
      m_TileIndex: 44
      m_TileSpriteIndex: 44
      m_TileMatrixIndex: 0
      m_TileColorIndex: 0
      m_TileObjectToInstantiateIndex: 65535
      dummyAlignment: 0
      m_AllTileFlags: 1073741825
  - first: {x: 2, y: -6, z: 0}
    second:
      serializedVersion: 2
      m_TileIndex: 45
      m_TileSpriteIndex: 45
      m_TileMatrixIndex: 0
      m_TileColorIndex: 0
      m_TileObjectToInstantiateIndex: 65535
      dummyAlignment: 0
      m_AllTileFlags: 1073741825
  - first: {x: 3, y: -6, z: 0}
    second:
      serializedVersion: 2
      m_TileIndex: 46
      m_TileSpriteIndex: 46
      m_TileMatrixIndex: 0
      m_TileColorIndex: 0
      m_TileObjectToInstantiateIndex: 65535
      dummyAlignment: 0
      m_AllTileFlags: 1073741825
  - first: {x: 4, y: -6, z: 0}
    second:
      serializedVersion: 2
      m_TileIndex: 47
      m_TileSpriteIndex: 47
      m_TileMatrixIndex: 0
      m_TileColorIndex: 0
      m_TileObjectToInstantiateIndex: 65535
      dummyAlignment: 0
      m_AllTileFlags: 1073741825
  - first: {x: 5, y: -6, z: 0}
    second:
      serializedVersion: 2
      m_TileIndex: 48
      m_TileSpriteIndex: 48
      m_TileMatrixIndex: 0
      m_TileColorIndex: 0
      m_TileObjectToInstantiateIndex: 65535
      dummyAlignment: 0
      m_AllTileFlags: 1073741825
  - first: {x: -1, y: -5, z: 0}
    second:
      serializedVersion: 2
      m_TileIndex: 35
      m_TileSpriteIndex: 35
      m_TileMatrixIndex: 0
      m_TileColorIndex: 0
      m_TileObjectToInstantiateIndex: 65535
      dummyAlignment: 0
      m_AllTileFlags: 1073741825
  - first: {x: 0, y: -5, z: 0}
    second:
      serializedVersion: 2
      m_TileIndex: 36
      m_TileSpriteIndex: 36
      m_TileMatrixIndex: 0
      m_TileColorIndex: 0
      m_TileObjectToInstantiateIndex: 65535
      dummyAlignment: 0
      m_AllTileFlags: 1073741825
  - first: {x: 1, y: -5, z: 0}
    second:
      serializedVersion: 2
      m_TileIndex: 37
      m_TileSpriteIndex: 37
      m_TileMatrixIndex: 0
      m_TileColorIndex: 0
      m_TileObjectToInstantiateIndex: 65535
      dummyAlignment: 0
      m_AllTileFlags: 1073741825
  - first: {x: 2, y: -5, z: 0}
    second:
      serializedVersion: 2
      m_TileIndex: 38
      m_TileSpriteIndex: 38
      m_TileMatrixIndex: 0
      m_TileColorIndex: 0
      m_TileObjectToInstantiateIndex: 65535
      dummyAlignment: 0
      m_AllTileFlags: 1073741825
  - first: {x: 3, y: -5, z: 0}
    second:
      serializedVersion: 2
      m_TileIndex: 39
      m_TileSpriteIndex: 39
      m_TileMatrixIndex: 0
      m_TileColorIndex: 0
      m_TileObjectToInstantiateIndex: 65535
      dummyAlignment: 0
      m_AllTileFlags: 1073741825
  - first: {x: 4, y: -5, z: 0}
    second:
      serializedVersion: 2
      m_TileIndex: 40
      m_TileSpriteIndex: 40
      m_TileMatrixIndex: 0
      m_TileColorIndex: 0
      m_TileObjectToInstantiateIndex: 65535
      dummyAlignment: 0
      m_AllTileFlags: 1073741825
  - first: {x: 5, y: -5, z: 0}
    second:
      serializedVersion: 2
      m_TileIndex: 41
      m_TileSpriteIndex: 41
      m_TileMatrixIndex: 0
      m_TileColorIndex: 0
      m_TileObjectToInstantiateIndex: 65535
      dummyAlignment: 0
      m_AllTileFlags: 1073741825
  - first: {x: -1, y: -4, z: 0}
    second:
      serializedVersion: 2
      m_TileIndex: 28
      m_TileSpriteIndex: 28
      m_TileMatrixIndex: 0
      m_TileColorIndex: 0
      m_TileObjectToInstantiateIndex: 65535
      dummyAlignment: 0
      m_AllTileFlags: 1073741825
  - first: {x: 0, y: -4, z: 0}
    second:
      serializedVersion: 2
      m_TileIndex: 29
      m_TileSpriteIndex: 29
      m_TileMatrixIndex: 0
      m_TileColorIndex: 0
      m_TileObjectToInstantiateIndex: 65535
      dummyAlignment: 0
      m_AllTileFlags: 1073741825
  - first: {x: 1, y: -4, z: 0}
    second:
      serializedVersion: 2
      m_TileIndex: 30
      m_TileSpriteIndex: 30
      m_TileMatrixIndex: 0
      m_TileColorIndex: 0
      m_TileObjectToInstantiateIndex: 65535
      dummyAlignment: 0
      m_AllTileFlags: 1073741825
  - first: {x: 2, y: -4, z: 0}
    second:
      serializedVersion: 2
      m_TileIndex: 31
      m_TileSpriteIndex: 31
      m_TileMatrixIndex: 0
      m_TileColorIndex: 0
      m_TileObjectToInstantiateIndex: 65535
      dummyAlignment: 0
      m_AllTileFlags: 1073741825
  - first: {x: 3, y: -4, z: 0}
    second:
      serializedVersion: 2
      m_TileIndex: 32
      m_TileSpriteIndex: 32
      m_TileMatrixIndex: 0
      m_TileColorIndex: 0
      m_TileObjectToInstantiateIndex: 65535
      dummyAlignment: 0
      m_AllTileFlags: 1073741825
  - first: {x: 4, y: -4, z: 0}
    second:
      serializedVersion: 2
      m_TileIndex: 33
      m_TileSpriteIndex: 33
      m_TileMatrixIndex: 0
      m_TileColorIndex: 0
      m_TileObjectToInstantiateIndex: 65535
      dummyAlignment: 0
      m_AllTileFlags: 1073741825
  - first: {x: 5, y: -4, z: 0}
    second:
      serializedVersion: 2
      m_TileIndex: 34
      m_TileSpriteIndex: 34
      m_TileMatrixIndex: 0
      m_TileColorIndex: 0
      m_TileObjectToInstantiateIndex: 65535
      dummyAlignment: 0
      m_AllTileFlags: 1073741825
  - first: {x: -1, y: -3, z: 0}
    second:
      serializedVersion: 2
      m_TileIndex: 21
      m_TileSpriteIndex: 21
      m_TileMatrixIndex: 0
      m_TileColorIndex: 0
      m_TileObjectToInstantiateIndex: 65535
      dummyAlignment: 0
      m_AllTileFlags: 1073741825
  - first: {x: 0, y: -3, z: 0}
    second:
      serializedVersion: 2
      m_TileIndex: 22
      m_TileSpriteIndex: 22
      m_TileMatrixIndex: 0
      m_TileColorIndex: 0
      m_TileObjectToInstantiateIndex: 65535
      dummyAlignment: 0
      m_AllTileFlags: 1073741825
  - first: {x: 1, y: -3, z: 0}
    second:
      serializedVersion: 2
      m_TileIndex: 23
      m_TileSpriteIndex: 23
      m_TileMatrixIndex: 0
      m_TileColorIndex: 0
      m_TileObjectToInstantiateIndex: 65535
      dummyAlignment: 0
      m_AllTileFlags: 1073741825
  - first: {x: 2, y: -3, z: 0}
    second:
      serializedVersion: 2
      m_TileIndex: 24
      m_TileSpriteIndex: 24
      m_TileMatrixIndex: 0
      m_TileColorIndex: 0
      m_TileObjectToInstantiateIndex: 65535
      dummyAlignment: 0
      m_AllTileFlags: 1073741825
  - first: {x: 3, y: -3, z: 0}
    second:
      serializedVersion: 2
      m_TileIndex: 25
      m_TileSpriteIndex: 25
      m_TileMatrixIndex: 0
      m_TileColorIndex: 0
      m_TileObjectToInstantiateIndex: 65535
      dummyAlignment: 0
      m_AllTileFlags: 1073741825
  - first: {x: 4, y: -3, z: 0}
    second:
      serializedVersion: 2
      m_TileIndex: 26
      m_TileSpriteIndex: 26
      m_TileMatrixIndex: 0
      m_TileColorIndex: 0
      m_TileObjectToInstantiateIndex: 65535
      dummyAlignment: 0
      m_AllTileFlags: 1073741825
  - first: {x: 5, y: -3, z: 0}
    second:
      serializedVersion: 2
      m_TileIndex: 27
      m_TileSpriteIndex: 27
      m_TileMatrixIndex: 0
      m_TileColorIndex: 0
      m_TileObjectToInstantiateIndex: 65535
      dummyAlignment: 0
      m_AllTileFlags: 1073741825
  - first: {x: -1, y: -2, z: 0}
    second:
      serializedVersion: 2
      m_TileIndex: 14
      m_TileSpriteIndex: 14
      m_TileMatrixIndex: 0
      m_TileColorIndex: 0
      m_TileObjectToInstantiateIndex: 65535
      dummyAlignment: 0
      m_AllTileFlags: 1073741825
  - first: {x: 0, y: -2, z: 0}
    second:
      serializedVersion: 2
      m_TileIndex: 15
      m_TileSpriteIndex: 15
      m_TileMatrixIndex: 0
      m_TileColorIndex: 0
      m_TileObjectToInstantiateIndex: 65535
      dummyAlignment: 0
      m_AllTileFlags: 1073741825
  - first: {x: 1, y: -2, z: 0}
    second:
      serializedVersion: 2
      m_TileIndex: 16
      m_TileSpriteIndex: 16
      m_TileMatrixIndex: 0
      m_TileColorIndex: 0
      m_TileObjectToInstantiateIndex: 65535
      dummyAlignment: 0
      m_AllTileFlags: 1073741825
  - first: {x: 2, y: -2, z: 0}
    second:
      serializedVersion: 2
      m_TileIndex: 17
      m_TileSpriteIndex: 17
      m_TileMatrixIndex: 0
      m_TileColorIndex: 0
      m_TileObjectToInstantiateIndex: 65535
      dummyAlignment: 0
      m_AllTileFlags: 1073741825
  - first: {x: 3, y: -2, z: 0}
    second:
      serializedVersion: 2
      m_TileIndex: 18
      m_TileSpriteIndex: 18
      m_TileMatrixIndex: 0
      m_TileColorIndex: 0
      m_TileObjectToInstantiateIndex: 65535
      dummyAlignment: 0
      m_AllTileFlags: 1073741825
  - first: {x: 4, y: -2, z: 0}
    second:
      serializedVersion: 2
      m_TileIndex: 19
      m_TileSpriteIndex: 19
      m_TileMatrixIndex: 0
      m_TileColorIndex: 0
      m_TileObjectToInstantiateIndex: 65535
      dummyAlignment: 0
      m_AllTileFlags: 1073741825
  - first: {x: 5, y: -2, z: 0}
    second:
      serializedVersion: 2
      m_TileIndex: 20
      m_TileSpriteIndex: 20
      m_TileMatrixIndex: 0
      m_TileColorIndex: 0
      m_TileObjectToInstantiateIndex: 65535
      dummyAlignment: 0
      m_AllTileFlags: 1073741825
  - first: {x: -1, y: -1, z: 0}
    second:
      serializedVersion: 2
      m_TileIndex: 7
      m_TileSpriteIndex: 7
      m_TileMatrixIndex: 0
      m_TileColorIndex: 0
      m_TileObjectToInstantiateIndex: 65535
      dummyAlignment: 0
      m_AllTileFlags: 1073741825
  - first: {x: 0, y: -1, z: 0}
    second:
      serializedVersion: 2
      m_TileIndex: 8
      m_TileSpriteIndex: 8
      m_TileMatrixIndex: 0
      m_TileColorIndex: 0
      m_TileObjectToInstantiateIndex: 65535
      dummyAlignment: 0
      m_AllTileFlags: 1073741825
  - first: {x: 1, y: -1, z: 0}
    second:
      serializedVersion: 2
      m_TileIndex: 9
      m_TileSpriteIndex: 9
      m_TileMatrixIndex: 0
      m_TileColorIndex: 0
      m_TileObjectToInstantiateIndex: 65535
      dummyAlignment: 0
      m_AllTileFlags: 1073741825
  - first: {x: 2, y: -1, z: 0}
    second:
      serializedVersion: 2
      m_TileIndex: 10
      m_TileSpriteIndex: 10
      m_TileMatrixIndex: 0
      m_TileColorIndex: 0
      m_TileObjectToInstantiateIndex: 65535
      dummyAlignment: 0
      m_AllTileFlags: 1073741825
  - first: {x: 3, y: -1, z: 0}
    second:
      serializedVersion: 2
      m_TileIndex: 11
      m_TileSpriteIndex: 11
      m_TileMatrixIndex: 0
      m_TileColorIndex: 0
      m_TileObjectToInstantiateIndex: 65535
      dummyAlignment: 0
      m_AllTileFlags: 1073741825
  - first: {x: 4, y: -1, z: 0}
    second:
      serializedVersion: 2
      m_TileIndex: 12
      m_TileSpriteIndex: 12
      m_TileMatrixIndex: 0
      m_TileColorIndex: 0
      m_TileObjectToInstantiateIndex: 65535
      dummyAlignment: 0
      m_AllTileFlags: 1073741825
  - first: {x: 5, y: -1, z: 0}
    second:
      serializedVersion: 2
      m_TileIndex: 13
      m_TileSpriteIndex: 13
      m_TileMatrixIndex: 0
      m_TileColorIndex: 0
      m_TileObjectToInstantiateIndex: 65535
      dummyAlignment: 0
      m_AllTileFlags: 1073741825
  - first: {x: -1, y: 0, z: 0}
    second:
      serializedVersion: 2
      m_TileIndex: 0
      m_TileSpriteIndex: 0
      m_TileMatrixIndex: 0
      m_TileColorIndex: 0
      m_TileObjectToInstantiateIndex: 65535
      dummyAlignment: 0
      m_AllTileFlags: 1073741825
  - first: {x: 0, y: 0, z: 0}
    second:
      serializedVersion: 2
      m_TileIndex: 1
      m_TileSpriteIndex: 1
      m_TileMatrixIndex: 0
      m_TileColorIndex: 0
      m_TileObjectToInstantiateIndex: 65535
      dummyAlignment: 0
      m_AllTileFlags: 1073741825
  - first: {x: 1, y: 0, z: 0}
    second:
      serializedVersion: 2
      m_TileIndex: 2
      m_TileSpriteIndex: 2
      m_TileMatrixIndex: 0
      m_TileColorIndex: 0
      m_TileObjectToInstantiateIndex: 65535
      dummyAlignment: 0
      m_AllTileFlags: 1073741825
  - first: {x: 2, y: 0, z: 0}
    second:
      serializedVersion: 2
      m_TileIndex: 3
      m_TileSpriteIndex: 3
      m_TileMatrixIndex: 0
      m_TileColorIndex: 0
      m_TileObjectToInstantiateIndex: 65535
      dummyAlignment: 0
      m_AllTileFlags: 1073741825
  - first: {x: 3, y: 0, z: 0}
    second:
      serializedVersion: 2
      m_TileIndex: 4
      m_TileSpriteIndex: 4
      m_TileMatrixIndex: 0
      m_TileColorIndex: 0
      m_TileObjectToInstantiateIndex: 65535
      dummyAlignment: 0
      m_AllTileFlags: 1073741825
  - first: {x: 4, y: 0, z: 0}
    second:
      serializedVersion: 2
      m_TileIndex: 5
      m_TileSpriteIndex: 5
      m_TileMatrixIndex: 0
      m_TileColorIndex: 0
      m_TileObjectToInstantiateIndex: 65535
      dummyAlignment: 0
      m_AllTileFlags: 1073741825
  - first: {x: 5, y: 0, z: 0}
    second:
      serializedVersion: 2
      m_TileIndex: 6
      m_TileSpriteIndex: 6
      m_TileMatrixIndex: 0
      m_TileColorIndex: 0
      m_TileObjectToInstantiateIndex: 65535
      dummyAlignment: 0
      m_AllTileFlags: 1073741825
  m_AnimatedTiles: {}
  m_TileAssetArray:
  - m_RefCount: 1
    m_Data: {fileID: 11400000, guid: a31f2ab9349664230bde85cbe8977caa, type: 2}
  - m_RefCount: 1
    m_Data: {fileID: 11400000, guid: d7425a621aac2428bbbf9ec2e1a394e7, type: 2}
  - m_RefCount: 1
    m_Data: {fileID: 11400000, guid: d5f9325d56f5649278528317d10d4315, type: 2}
  - m_RefCount: 1
    m_Data: {fileID: 11400000, guid: b04f5ee97c323449bb2b535a42b51523, type: 2}
  - m_RefCount: 1
    m_Data: {fileID: 11400000, guid: 1e30f60035aab4c17b09830500bc8230, type: 2}
  - m_RefCount: 1
    m_Data: {fileID: 11400000, guid: 6eded25bff6604d3b8db2172a2a662d7, type: 2}
  - m_RefCount: 1
    m_Data: {fileID: 11400000, guid: 0b3247b2605834ea0857884cf9ba3d43, type: 2}
  - m_RefCount: 1
    m_Data: {fileID: 11400000, guid: 3f91d49c438dd4e809b3e1f16d4f2964, type: 2}
  - m_RefCount: 1
    m_Data: {fileID: 11400000, guid: 01d1aae3ab45743fd9b51b099c938791, type: 2}
  - m_RefCount: 1
    m_Data: {fileID: 11400000, guid: 80bab44d6bb444bdd9cbe0bdde2db837, type: 2}
  - m_RefCount: 1
    m_Data: {fileID: 11400000, guid: 3593de20ecfd14fb2be5ed953d9a4077, type: 2}
  - m_RefCount: 1
    m_Data: {fileID: 11400000, guid: 24a87a48c71164b92b14c62ac823e944, type: 2}
  - m_RefCount: 1
    m_Data: {fileID: 11400000, guid: 9632532cf5a494104ab3618f1d367f26, type: 2}
  - m_RefCount: 1
    m_Data: {fileID: 11400000, guid: 92663b48d2c6c4c91a9fe7797972ead3, type: 2}
  - m_RefCount: 1
    m_Data: {fileID: 11400000, guid: fa5667551b88046178688469e2e136c2, type: 2}
  - m_RefCount: 1
    m_Data: {fileID: 11400000, guid: c1785d2903b674f7aa7548da0b6ce3a7, type: 2}
  - m_RefCount: 1
    m_Data: {fileID: 11400000, guid: 70120a3746f62424d9a304f0c29f3ae2, type: 2}
  - m_RefCount: 1
    m_Data: {fileID: 11400000, guid: 7363476c7d924479288bccc8f665d6ed, type: 2}
  - m_RefCount: 1
    m_Data: {fileID: 11400000, guid: c78627ec4b53f4e969d2766475314b21, type: 2}
  - m_RefCount: 1
    m_Data: {fileID: 11400000, guid: a193d9eb6d0d748a1b16eb3b523c596c, type: 2}
  - m_RefCount: 1
    m_Data: {fileID: 11400000, guid: f9cf75ac1c7304e55995fca5eab9c1c5, type: 2}
  - m_RefCount: 1
    m_Data: {fileID: 11400000, guid: df18413baf48a4e3aaf31cf8fe70251f, type: 2}
  - m_RefCount: 1
    m_Data: {fileID: 11400000, guid: 6c252859f75ca4fac969b7643b30e711, type: 2}
  - m_RefCount: 1
    m_Data: {fileID: 11400000, guid: 28d02396d20f544a8b15585b3805ea83, type: 2}
  - m_RefCount: 1
    m_Data: {fileID: 11400000, guid: 96f8888c3a23c40df89c318e3608279e, type: 2}
  - m_RefCount: 1
    m_Data: {fileID: 11400000, guid: e1922043df76641e4972595c7c65001d, type: 2}
  - m_RefCount: 1
    m_Data: {fileID: 11400000, guid: 9267a005df6834381bdab7d397ea3c3a, type: 2}
  - m_RefCount: 1
    m_Data: {fileID: 11400000, guid: 63a51355bf4d3459e91c6e5072461c42, type: 2}
  - m_RefCount: 1
    m_Data: {fileID: 11400000, guid: bd901b83e58f2418ab417d6eb267004c, type: 2}
  - m_RefCount: 1
    m_Data: {fileID: 11400000, guid: 534f64a0da7af4a2c88206d2c61eadbe, type: 2}
  - m_RefCount: 1
    m_Data: {fileID: 11400000, guid: 3a81c1239994b40c7933420c1b737e62, type: 2}
  - m_RefCount: 1
    m_Data: {fileID: 11400000, guid: 107bb3ebed6e14914b2d60f37a03bc05, type: 2}
  - m_RefCount: 1
    m_Data: {fileID: 11400000, guid: 2b7682eac023147b5b675e8a9249c3b2, type: 2}
  - m_RefCount: 1
    m_Data: {fileID: 11400000, guid: f1455ce126ac74c339343ed846a19cd5, type: 2}
  - m_RefCount: 1
    m_Data: {fileID: 11400000, guid: a861c0c6edddf401c9c100a2f96be0ef, type: 2}
  - m_RefCount: 1
    m_Data: {fileID: 11400000, guid: 5587d310373de4cb08b6efbf2ecf1fdf, type: 2}
  - m_RefCount: 1
    m_Data: {fileID: 11400000, guid: 1193fc3a1a4284caeb6255f12b82618d, type: 2}
  - m_RefCount: 1
    m_Data: {fileID: 11400000, guid: 8809fbb1183894470b64168a89b07e9b, type: 2}
  - m_RefCount: 1
    m_Data: {fileID: 11400000, guid: f1850de1109f24c08a73cb4a07f6bdd5, type: 2}
  - m_RefCount: 1
    m_Data: {fileID: 11400000, guid: e008483d3373c4cc1b4a2852a5f77ed0, type: 2}
  - m_RefCount: 1
    m_Data: {fileID: 11400000, guid: 56606d0d8ac38445e802e7cc7427a78b, type: 2}
  - m_RefCount: 1
    m_Data: {fileID: 11400000, guid: 10c51f0b31ddd4429a3ad86b50eca610, type: 2}
  - m_RefCount: 1
    m_Data: {fileID: 11400000, guid: 0412068afb81241d49482782bba150f3, type: 2}
  - m_RefCount: 1
    m_Data: {fileID: 11400000, guid: 35d9cb26faa504b9d849972e623ed6ac, type: 2}
  - m_RefCount: 1
    m_Data: {fileID: 11400000, guid: bf7005c298bf24a89a5fbb7b7bcb7552, type: 2}
  - m_RefCount: 1
    m_Data: {fileID: 11400000, guid: 656cdb4df06c94dc993e3d480dbec8b8, type: 2}
  - m_RefCount: 1
    m_Data: {fileID: 11400000, guid: a025225c12c344f61a3a2921af3288c4, type: 2}
  - m_RefCount: 1
    m_Data: {fileID: 11400000, guid: 74edd12a00bbd47a7b404ea8e82da6e1, type: 2}
  - m_RefCount: 1
    m_Data: {fileID: 11400000, guid: 7b0f9f1c68efa4925af3fc75c197b81a, type: 2}
  - m_RefCount: 1
    m_Data: {fileID: 11400000, guid: 5dd38477551bc467196c12bc27eddaba, type: 2}
  - m_RefCount: 1
    m_Data: {fileID: 11400000, guid: bb8965d6cd28e4d6295bb2566df32fc7, type: 2}
  - m_RefCount: 1
    m_Data: {fileID: 11400000, guid: 6ce68155aabdc4e5799c0157af7fc764, type: 2}
  - m_RefCount: 1
    m_Data: {fileID: 11400000, guid: f7fd2840838ff43a3b7f6dfe328dbbab, type: 2}
  - m_RefCount: 1
    m_Data: {fileID: 11400000, guid: 96813e495bdc5495c9c33e093e36bfdf, type: 2}
  - m_RefCount: 1
    m_Data: {fileID: 11400000, guid: 0627433a7e46b484b9c5d5402a52b58f, type: 2}
  - m_RefCount: 1
    m_Data: {fileID: 11400000, guid: 00573d2007d1143b4b2524536e03af62, type: 2}
  m_TileSpriteArray:
  - m_RefCount: 1
    m_Data: {fileID: 21300000, guid: 71f3e6599262f8947bcfb451fbc4d05b, type: 3}
  - m_RefCount: 1
    m_Data: {fileID: 21300000, guid: ec1a9d4afcbaed24fb8825e6f1666849, type: 3}
  - m_RefCount: 1
    m_Data: {fileID: 21300000, guid: 363593c8a7706d540849cf4e1307b037, type: 3}
  - m_RefCount: 1
    m_Data: {fileID: 21300000, guid: 81b8baf5cb4f92d4881814bc879176ed, type: 3}
  - m_RefCount: 1
    m_Data: {fileID: 21300000, guid: 72c5727a07eeaea4b9f4e43db2eee173, type: 3}
  - m_RefCount: 1
    m_Data: {fileID: 21300000, guid: 1259eba55dbb7304dbeb5c74872f3bf0, type: 3}
  - m_RefCount: 1
    m_Data: {fileID: 21300000, guid: d6b94a120be31234093c641b088d6efa, type: 3}
  - m_RefCount: 1
    m_Data: {fileID: 21300000, guid: 87b58b3ae86805c4696c053ec2847494, type: 3}
  - m_RefCount: 1
    m_Data: {fileID: 21300000, guid: dcfc344e2fefc8644a20687306009d36, type: 3}
  - m_RefCount: 1
    m_Data: {fileID: 21300000, guid: 066cbfa30779a834da7bf169cdadc624, type: 3}
  - m_RefCount: 1
    m_Data: {fileID: 21300000, guid: 316370d37ebfb2b4b91e2a818978e3e4, type: 3}
  - m_RefCount: 1
    m_Data: {fileID: 21300000, guid: c0a33932f16d46b4682b96bc297ce452, type: 3}
  - m_RefCount: 1
    m_Data: {fileID: 21300000, guid: 2a9449adccd04de49b92f84005398545, type: 3}
  - m_RefCount: 1
    m_Data: {fileID: 21300000, guid: d90f1318954c56640acd168cfdfd63d7, type: 3}
  - m_RefCount: 1
    m_Data: {fileID: 21300000, guid: 99e5c6022c115fd4b9715d5ea91ddf09, type: 3}
  - m_RefCount: 1
    m_Data: {fileID: 21300000, guid: bc8060183fb8e0c4c92ab37e80d227ea, type: 3}
  - m_RefCount: 1
    m_Data: {fileID: 21300000, guid: 694d82f9396f14d499445bbd3170f90e, type: 3}
  - m_RefCount: 1
    m_Data: {fileID: 21300000, guid: 88adf81e006219144b1265a61e0198e7, type: 3}
  - m_RefCount: 1
    m_Data: {fileID: 21300000, guid: 739d4b24257c208468a6a1a643f88d57, type: 3}
  - m_RefCount: 1
    m_Data: {fileID: 21300000, guid: e405a71435f7238459833b07a3693af5, type: 3}
  - m_RefCount: 1
    m_Data: {fileID: 21300000, guid: 8d50bfa89d28254419450053fecd9364, type: 3}
  - m_RefCount: 1
    m_Data: {fileID: 21300000, guid: 985c3c8f8cb137a4abed270f668d807e, type: 3}
  - m_RefCount: 1
    m_Data: {fileID: 21300000, guid: 22a7bf3007a0c8a43ad8b5945abfa931, type: 3}
  - m_RefCount: 1
    m_Data: {fileID: 21300000, guid: fa34faca04fc39b4c839de011f29f759, type: 3}
  - m_RefCount: 1
    m_Data: {fileID: 21300000, guid: 9a54cc47439c61f4699105705bc703fd, type: 3}
  - m_RefCount: 1
    m_Data: {fileID: 21300000, guid: 42003d9dcbc052142934316beae184a1, type: 3}
  - m_RefCount: 1
    m_Data: {fileID: 21300000, guid: f23fa7761f625c647b42fcddc82e4488, type: 3}
  - m_RefCount: 1
    m_Data: {fileID: 21300000, guid: e7d1d5436731a0b498c84ff16451008d, type: 3}
  - m_RefCount: 1
    m_Data: {fileID: 21300000, guid: c814ee0e51741ad4fac360911e384111, type: 3}
  - m_RefCount: 1
    m_Data: {fileID: 21300000, guid: 07b9c103ce1705c4692599a7c41008ca, type: 3}
  - m_RefCount: 1
    m_Data: {fileID: 21300000, guid: cda09e47dc491fe45b2acedb8c84bf55, type: 3}
  - m_RefCount: 1
    m_Data: {fileID: 21300000, guid: 8b8f24951e063f04f8d5935b74e6ac15, type: 3}
  - m_RefCount: 1
    m_Data: {fileID: 21300000, guid: 792e54ce4d2e94547915e56c6216e6d6, type: 3}
  - m_RefCount: 1
    m_Data: {fileID: 21300000, guid: 59c2819a88560f4449bc335655ca1850, type: 3}
  - m_RefCount: 1
    m_Data: {fileID: 21300000, guid: 492348044792a3e4099b8418500b4729, type: 3}
  - m_RefCount: 1
    m_Data: {fileID: 21300000, guid: 8f993e74f2783fc4f801d2d5647b502e, type: 3}
  - m_RefCount: 1
    m_Data: {fileID: 21300000, guid: 74e723d4695da7d40b35e6996b0429f4, type: 3}
  - m_RefCount: 1
    m_Data: {fileID: 21300000, guid: 868531491eae1874aad18550a88432fd, type: 3}
  - m_RefCount: 1
    m_Data: {fileID: 21300000, guid: f3097d40aeb60c34cb7e9bc9763983ac, type: 3}
  - m_RefCount: 1
    m_Data: {fileID: 21300000, guid: 608c7e0307af53948ad45f139f84e4a4, type: 3}
  - m_RefCount: 1
    m_Data: {fileID: 21300000, guid: 4335ed4110ea6b541a09ae91acf874d8, type: 3}
  - m_RefCount: 1
    m_Data: {fileID: 21300000, guid: 52554b6a257ae3445b399901686f3127, type: 3}
  - m_RefCount: 1
    m_Data: {fileID: 21300000, guid: 3265cadf2fc7fce4ea805506a408486a, type: 3}
  - m_RefCount: 1
    m_Data: {fileID: 21300000, guid: c36e8e8fa75b8ff49b17175df348fa44, type: 3}
  - m_RefCount: 1
    m_Data: {fileID: 21300000, guid: 06dadc1193d3a65429f283c266336078, type: 3}
  - m_RefCount: 1
    m_Data: {fileID: 21300000, guid: 4e0ce527fb24f6345b13d031efdc6c0e, type: 3}
  - m_RefCount: 1
    m_Data: {fileID: 21300000, guid: 22c982a62466cbe4d9a39d1fc476602d, type: 3}
  - m_RefCount: 1
    m_Data: {fileID: 21300000, guid: 2a519f3be0b42fd49bf688892f84ffbf, type: 3}
  - m_RefCount: 1
    m_Data: {fileID: 21300000, guid: 6291f579a44fea44d9e8dbf24f69f33a, type: 3}
  - m_RefCount: 1
    m_Data: {fileID: 21300000, guid: 4d385b8046608a046b9b88039d26117a, type: 3}
  - m_RefCount: 1
    m_Data: {fileID: 21300000, guid: 076fd877a4be24f43b5d653587d2b287, type: 3}
  - m_RefCount: 1
    m_Data: {fileID: 21300000, guid: 735dd30b1ad73224aad41639451bc4db, type: 3}
  - m_RefCount: 1
    m_Data: {fileID: 21300000, guid: b353c9029cadc774fa090d854466dad6, type: 3}
  - m_RefCount: 1
    m_Data: {fileID: 21300000, guid: aa55f93078be63a47bcf66407375fd39, type: 3}
  - m_RefCount: 1
    m_Data: {fileID: 21300000, guid: 92349c95482950746a807592b60e042d, type: 3}
  - m_RefCount: 1
    m_Data: {fileID: 21300000, guid: 64495f3c9d9f7c94abc160e6380ac518, type: 3}
  m_TileMatrixArray:
  - m_RefCount: 56
    m_Data:
      e00: 1
      e01: 0
      e02: 0
      e03: 0
      e10: 0
      e11: 1
      e12: 0
      e13: 0
      e20: 0
      e21: 0
      e22: 1
      e23: 0
      e30: 0
      e31: 0
      e32: 0
      e33: 1
  m_TileColorArray:
  - m_RefCount: 56
    m_Data: {r: 1, g: 1, b: 1, a: 1}
  m_TileObjectToInstantiateArray: []
  m_AnimationFrameRate: 1
  m_Color: {r: 1, g: 1, b: 1, a: 1}
  m_Origin: {x: -1, y: -7, z: 0}
  m_Size: {x: 7, y: 8, z: 1}
  m_TileAnchor: {x: 0.5, y: 0.5, z: 0}
  m_TileOrientation: 0
  m_TileOrientationMatrix:
    e00: 1
    e01: 0
    e02: 0
    e03: 0
    e10: 0
    e11: 1
    e12: 0
    e13: 0
    e20: 0
    e21: 0
    e22: 1
    e23: 0
    e30: 0
    e31: 0
    e32: 0
    e33: 1
--- !u!483693784 &2226311230847348730
TilemapRenderer:
  m_ObjectHideFlags: 0
  m_CorrespondingSourceObject: {fileID: 0}
  m_PrefabInstance: {fileID: 0}
  m_PrefabAsset: {fileID: 0}
  m_GameObject: {fileID: 775561128995523761}
  m_Enabled: 1
  m_CastShadows: 0
  m_ReceiveShadows: 0
  m_DynamicOccludee: 0
  m_MotionVectors: 1
  m_LightProbeUsage: 0
  m_ReflectionProbeUsage: 0
  m_RayTracingMode: 0
  m_RayTraceProcedural: 0
  m_RenderingLayerMask: 1
  m_RendererPriority: 0
  m_Materials:
  - {fileID: 10754, guid: 0000000000000000f000000000000000, type: 0}
  m_StaticBatchInfo:
    firstSubMesh: 0
    subMeshCount: 0
  m_StaticBatchRoot: {fileID: 0}
  m_ProbeAnchor: {fileID: 0}
  m_LightProbeVolumeOverride: {fileID: 0}
  m_ScaleInLightmap: 1
  m_ReceiveGI: 1
  m_PreserveUVs: 0
  m_IgnoreNormalsForChartDetection: 0
  m_ImportantGI: 0
  m_StitchLightmapSeams: 1
  m_SelectedEditorRenderState: 0
  m_MinimumChartSize: 4
  m_AutoUVMaxDistance: 0.5
  m_AutoUVMaxAngle: 89
  m_LightmapParameters: {fileID: 0}
  m_SortingLayerID: 0
  m_SortingLayer: 0
  m_SortingOrder: 0
  m_ChunkSize: {x: 32, y: 32, z: 32}
  m_ChunkCullingBounds: {x: 0, y: 0, z: 0}
  m_MaxChunkCount: 16
  m_MaxFrameAge: 16
  m_SortOrder: 0
  m_Mode: 0
  m_DetectChunkCullingBounds: 0
  m_MaskInteraction: 0
--- !u!1 &5062861876574695334
GameObject:
  m_ObjectHideFlags: 0
  m_CorrespondingSourceObject: {fileID: 0}
  m_PrefabInstance: {fileID: 0}
  m_PrefabAsset: {fileID: 0}
  serializedVersion: 6
  m_Component:
  - component: {fileID: 5676941852293770979}
  - component: {fileID: 2713239488530030845}
  m_Layer: 31
  m_Name: Underwater2
  m_TagString: Untagged
  m_Icon: {fileID: 0}
  m_NavMeshLayer: 0
  m_StaticEditorFlags: 0
  m_IsActive: 1
--- !u!4 &5676941852293770979
Transform:
  m_ObjectHideFlags: 0
  m_CorrespondingSourceObject: {fileID: 0}
  m_PrefabInstance: {fileID: 0}
  m_PrefabAsset: {fileID: 0}
  m_GameObject: {fileID: 5062861876574695334}
  m_LocalRotation: {x: 0, y: 0, z: 0, w: 1}
  m_LocalPosition: {x: 0, y: 0, z: 0}
  m_LocalScale: {x: 1, y: 1, z: 1}
  m_Children:
  - {fileID: 4917521712183327043}
  m_Father: {fileID: 0}
  m_RootOrder: 0
  m_LocalEulerAnglesHint: {x: 0, y: 0, z: 0}
--- !u!156049354 &2713239488530030845
Grid:
  m_ObjectHideFlags: 0
  m_CorrespondingSourceObject: {fileID: 0}
  m_PrefabInstance: {fileID: 0}
  m_PrefabAsset: {fileID: 0}
  m_GameObject: {fileID: 5062861876574695334}
  m_Enabled: 1
  m_CellSize: {x: 1, y: 1, z: 0}
  m_CellGap: {x: 0, y: 0, z: 0}
  m_CellLayout: 0
  m_CellSwizzle: 0
--- !u!114 &4127909566343457098
MonoBehaviour:
  m_ObjectHideFlags: 0
  m_CorrespondingSourceObject: {fileID: 0}
  m_PrefabInstance: {fileID: 0}
  m_PrefabAsset: {fileID: 0}
  m_GameObject: {fileID: 0}
  m_Enabled: 1
  m_EditorHideFlags: 0
  m_Script: {fileID: 12395, guid: 0000000000000000e000000000000000, type: 0}
  m_Name: Palette Settings
  m_EditorClassIdentifier: 
  cellSizing: 0
  m_TransparencySortMode: 0
  m_TransparencySortAxis: {x: 0, y: 0, z: 1}
