%YAML 1.1
%TAG !u! tag:unity3d.com,2011:
--- !u!74 &7400000
AnimationClip:
  m_ObjectHideFlags: 0
  m_CorrespondingSourceObject: {fileID: 0}
  m_PrefabInstance: {fileID: 0}
  m_PrefabAsset: {fileID: 0}
  m_Name: Water Boy Showcase
  serializedVersion: 6
  m_Legacy: 0
  m_Compressed: 0
  m_UseHighQualityCurve: 1
  m_RotationCurves: []
  m_CompressedRotationCurves: []
  m_EulerCurves: []
  m_PositionCurves: []
  m_ScaleCurves: []
  m_FloatCurves: []
  m_PPtrCurves:
  - curve:
    - time: 0
      value: {fileID: -6473557824521231792, guid: c68a173c3f89b02419d7ee39bc728524, type: 3}
    - time: 0.083333336
      value: {fileID: -1650376392040668576, guid: c68a173c3f89b02419d7ee39bc728524, type: 3}
    - time: 0.16666667
      value: {fileID: 6681334172288162406, guid: c68a173c3f89b02419d7ee39bc728524, type: 3}
    - time: 0.25
      value: {fileID: -2295193107172072254, guid: c68a173c3f89b02419d7ee39bc728524, type: 3}
    - time: 0.33333334
      value: {fileID: -6473557824521231792, guid: c68a173c3f89b02419d7ee39bc728524, type: 3}
    - time: 0.75
      value: {fileID: -6473557824521231792, guid: c68a173c3f89b02419d7ee39bc728524, type: 3}
    - time: 0.8333333
      value: {fileID: -1650376392040668576, guid: c68a173c3f89b02419d7ee39bc728524, type: 3}
    - time: 0.9166667
      value: {fileID: 6681334172288162406, guid: c68a173c3f89b02419d7ee39bc728524, type: 3}
    - time: 1
      value: {fileID: -2295193107172072254, guid: c68a173c3f89b02419d7ee39bc728524, type: 3}
    - time: 1.0833334
      value: {fileID: -6473557824521231792, guid: c68a173c3f89b02419d7ee39bc728524, type: 3}
    - time: 1.4166666
      value: {fileID: -3365977132822902718, guid: dc6a6c017abe96b4b831b708530d20cd, type: 3}
    - time: 1.5
      value: {fileID: 3188795721837192440, guid: dc6a6c017abe96b4b831b708530d20cd, type: 3}
    - time: 1.5833334
      value: {fileID: -7952276147576875131, guid: dc6a6c017abe96b4b831b708530d20cd, type: 3}
    - time: 1.6666666
      value: {fileID: 3645197879711600937, guid: dc6a6c017abe96b4b831b708530d20cd, type: 3}
    - time: 1.75
      value: {fileID: -2130706517953393273, guid: dc6a6c017abe96b4b831b708530d20cd, type: 3}
    - time: 1.8333334
      value: {fileID: 8290146999878644172, guid: dc6a6c017abe96b4b831b708530d20cd, type: 3}
    - time: 1.9166666
      value: {fileID: 4680999986004050565, guid: dc6a6c017abe96b4b831b708530d20cd, type: 3}
    - time: 2
      value: {fileID: 4682724959437386730, guid: dc6a6c017abe96b4b831b708530d20cd, type: 3}
    - time: 2.0833333
      value: {fileID: -3365977132822902718, guid: dc6a6c017abe96b4b831b708530d20cd, type: 3}
    - time: 2.1666667
      value: {fileID: 3188795721837192440, guid: dc6a6c017abe96b4b831b708530d20cd, type: 3}
    - time: 2.25
      value: {fileID: -7952276147576875131, guid: dc6a6c017abe96b4b831b708530d20cd, type: 3}
    - time: 2.3333333
      value: {fileID: 3645197879711600937, guid: dc6a6c017abe96b4b831b708530d20cd, type: 3}
    - time: 2.4166667
      value: {fileID: -2130706517953393273, guid: dc6a6c017abe96b4b831b708530d20cd, type: 3}
    - time: 2.5
      value: {fileID: 8290146999878644172, guid: dc6a6c017abe96b4b831b708530d20cd, type: 3}
    - time: 2.5833333
      value: {fileID: 4680999986004050565, guid: dc6a6c017abe96b4b831b708530d20cd, type: 3}
    - time: 2.6666667
      value: {fileID: 4682724959437386730, guid: dc6a6c017abe96b4b831b708530d20cd, type: 3}
    - time: 2.75
      value: {fileID: -3365977132822902718, guid: dc6a6c017abe96b4b831b708530d20cd, type: 3}
    - time: 2.8333333
      value: {fileID: -1460364409555501840, guid: 98e0ee9a51008434cb1be66fcc3bff24, type: 3}
    - time: 2.9166667
      value: {fileID: 8950840995329788508, guid: 98e0ee9a51008434cb1be66fcc3bff24, type: 3}
    - time: 3
      value: {fileID: -4058301550541560650, guid: 98e0ee9a51008434cb1be66fcc3bff24, type: 3}
    - time: 3.0833333
      value: {fileID: 7332986950212590114, guid: 98e0ee9a51008434cb1be66fcc3bff24, type: 3}
    - time: 3.1666667
      value: {fileID: 7902805729382151979, guid: 98e0ee9a51008434cb1be66fcc3bff24, type: 3}
    - time: 3.25
      value: {fileID: 5057286346768814841, guid: 98e0ee9a51008434cb1be66fcc3bff24, type: 3}
    - time: 3.3333333
      value: {fileID: -7440443978885688236, guid: 98e0ee9a51008434cb1be66fcc3bff24, type: 3}
    - time: 3.4166667
      value: {fileID: -1363130011324293300, guid: 98e0ee9a51008434cb1be66fcc3bff24, type: 3}
    - time: 3.5
      value: {fileID: -3423606718341286874, guid: 98e0ee9a51008434cb1be66fcc3bff24, type: 3}
    - time: 3.5833333
      value: {fileID: 6044360835187743645, guid: 98e0ee9a51008434cb1be66fcc3bff24, type: 3}
    - time: 3.6666667
      value: {fileID: -7523399730589245169, guid: 98e0ee9a51008434cb1be66fcc3bff24, type: 3}
    - time: 3.75
      value: {fileID: 2296626378765185888, guid: 98e0ee9a51008434cb1be66fcc3bff24, type: 3}
    - time: 3.8333333
      value: {fileID: 5803345666792567986, guid: 2578bfab043a30541ad55929651355de, type: 3}
    - time: 4
      value: {fileID: 5803345666792567986, guid: 2578bfab043a30541ad55929651355de, type: 3}
    - time: 4.0833335
      value: {fileID: -8801950490617933804, guid: 2578bfab043a30541ad55929651355de, type: 3}
    - time: 4.1666665
      value: {fileID: 541221249841298073, guid: 2578bfab043a30541ad55929651355de, type: 3}
    - time: 4.25
      value: {fileID: 4891337474463002156, guid: 2578bfab043a30541ad55929651355de, type: 3}
    - time: 4.3333335
      value: {fileID: 8285487198893821115, guid: 2578bfab043a30541ad55929651355de, type: 3}
    - time: 4.4166665
      value: {fileID: -1222168954864144280, guid: 2578bfab043a30541ad55929651355de, type: 3}
    - time: 4.5
      value: {fileID: -4078153842035546359, guid: 2578bfab043a30541ad55929651355de, type: 3}
    - time: 4.5833335
      value: {fileID: 9213110912436891400, guid: 2578bfab043a30541ad55929651355de, type: 3}
    - time: 4.6666665
      value: {fileID: 2333282614937999559, guid: 2578bfab043a30541ad55929651355de, type: 3}
    - time: 4.75
      value: {fileID: 9043137441460536722, guid: 2578bfab043a30541ad55929651355de, type: 3}
    - time: 4.8333335
      value: {fileID: -7355145954161445742, guid: 2578bfab043a30541ad55929651355de, type: 3}
    - time: 4.9166665
      value: {fileID: -6980144058853190642, guid: 2578bfab043a30541ad55929651355de, type: 3}
    - time: 5
      value: {fileID: 5803345666792567986, guid: 2578bfab043a30541ad55929651355de, type: 3}
    - time: 5.0833335
      value: {fileID: -8801950490617933804, guid: 2578bfab043a30541ad55929651355de, type: 3}
    - time: 5.1666665
      value: {fileID: 541221249841298073, guid: 2578bfab043a30541ad55929651355de, type: 3}
    - time: 5.25
      value: {fileID: 4891337474463002156, guid: 2578bfab043a30541ad55929651355de, type: 3}
    - time: 5.3333335
      value: {fileID: 8285487198893821115, guid: 2578bfab043a30541ad55929651355de, type: 3}
    - time: 5.4166665
      value: {fileID: -1222168954864144280, guid: 2578bfab043a30541ad55929651355de, type: 3}
    - time: 5.5
      value: {fileID: -4078153842035546359, guid: 2578bfab043a30541ad55929651355de, type: 3}
    - time: 5.5833335
      value: {fileID: 9213110912436891400, guid: 2578bfab043a30541ad55929651355de, type: 3}
    - time: 5.6666665
      value: {fileID: 2333282614937999559, guid: 2578bfab043a30541ad55929651355de, type: 3}
    - time: 5.75
      value: {fileID: 9043137441460536722, guid: 2578bfab043a30541ad55929651355de, type: 3}
    - time: 5.8333335
      value: {fileID: -7355145954161445742, guid: 2578bfab043a30541ad55929651355de, type: 3}
    - time: 5.9166665
      value: {fileID: -6980144058853190642, guid: 2578bfab043a30541ad55929651355de, type: 3}
    - time: 6.1666665
      value: {fileID: 3042071122740883093, guid: 9e4e00358d25c1f458d0c0bea43133b3, type: 3}
    - time: 6.25
      value: {fileID: 6838512604053251180, guid: 9e4e00358d25c1f458d0c0bea43133b3, type: 3}
    - time: 6.3333335
      value: {fileID: 2416167864093810674, guid: 9e4e00358d25c1f458d0c0bea43133b3, type: 3}
    - time: 6.4166665
      value: {fileID: 2041825766940719570, guid: 9e4e00358d25c1f458d0c0bea43133b3, type: 3}
    - time: 6.5
      value: {fileID: -6997860408571361445, guid: 9e4e00358d25c1f458d0c0bea43133b3, type: 3}
    - time: 6.5833335
      value: {fileID: -7536160356129601582, guid: 9e4e00358d25c1f458d0c0bea43133b3, type: 3}
    - time: 6.6666665
      value: {fileID: -6124730705796828550, guid: 9e4e00358d25c1f458d0c0bea43133b3, type: 3}
    - time: 6.75
      value: {fileID: 901643224775580036, guid: 9e4e00358d25c1f458d0c0bea43133b3, type: 3}
    - time: 6.8333335
      value: {fileID: 3042071122740883093, guid: 9e4e00358d25c1f458d0c0bea43133b3, type: 3}
    - time: 6.9166665
      value: {fileID: 6838512604053251180, guid: 9e4e00358d25c1f458d0c0bea43133b3, type: 3}
    - time: 7
      value: {fileID: 2416167864093810674, guid: 9e4e00358d25c1f458d0c0bea43133b3, type: 3}
    - time: 7.0833335
      value: {fileID: 2041825766940719570, guid: 9e4e00358d25c1f458d0c0bea43133b3, type: 3}
    - time: 7.1666665
      value: {fileID: -6997860408571361445, guid: 9e4e00358d25c1f458d0c0bea43133b3, type: 3}
    - time: 7.25
      value: {fileID: -7536160356129601582, guid: 9e4e00358d25c1f458d0c0bea43133b3, type: 3}
    - time: 7.3333335
      value: {fileID: -6124730705796828550, guid: 9e4e00358d25c1f458d0c0bea43133b3, type: 3}
    - time: 7.4166665
      value: {fileID: 901643224775580036, guid: 9e4e00358d25c1f458d0c0bea43133b3, type: 3}
    - time: 7.5833335
      value: {fileID: 5803345666792567986, guid: 2578bfab043a30541ad55929651355de, type: 3}
    - time: 7.6666665
      value: {fileID: 2296626378765185888, guid: 98e0ee9a51008434cb1be66fcc3bff24, type: 3}
    - time: 7.75
      value: {fileID: -7523399730589245169, guid: 98e0ee9a51008434cb1be66fcc3bff24, type: 3}
    - time: 7.8333335
      value: {fileID: 6044360835187743645, guid: 98e0ee9a51008434cb1be66fcc3bff24, type: 3}
    - time: 7.9166665
      value: {fileID: -3423606718341286874, guid: 98e0ee9a51008434cb1be66fcc3bff24, type: 3}
    - time: 8
      value: {fileID: -1363130011324293300, guid: 98e0ee9a51008434cb1be66fcc3bff24, type: 3}
    - time: 8.083333
      value: {fileID: -7440443978885688236, guid: 98e0ee9a51008434cb1be66fcc3bff24, type: 3}
    - time: 8.166667
      value: {fileID: 5057286346768814841, guid: 98e0ee9a51008434cb1be66fcc3bff24, type: 3}
    - time: 8.25
      value: {fileID: 7902805729382151979, guid: 98e0ee9a51008434cb1be66fcc3bff24, type: 3}
    - time: 8.333333
      value: {fileID: 7332986950212590114, guid: 98e0ee9a51008434cb1be66fcc3bff24, type: 3}
    - time: 8.416667
      value: {fileID: -4058301550541560650, guid: 98e0ee9a51008434cb1be66fcc3bff24, type: 3}
    - time: 8.5
      value: {fileID: 8950840995329788508, guid: 98e0ee9a51008434cb1be66fcc3bff24, type: 3}
    - time: 8.583333
      value: {fileID: -1460364409555501840, guid: 98e0ee9a51008434cb1be66fcc3bff24, type: 3}
    attribute: m_Sprite
    path: 
    classID: 212
    script: {fileID: 0}
  m_SampleRate: 12
  m_WrapMode: 0
  m_Bounds:
    m_Center: {x: 0, y: 0, z: 0}
    m_Extent: {x: 0, y: 0, z: 0}
  m_ClipBindingConstant:
    genericBindings:
    - serializedVersion: 2
      path: 0
      attribute: 0
      script: {fileID: 0}
      typeID: 212
      customType: 23
      isPPtrCurve: 1
    pptrCurveMapping:
    - {fileID: -6473557824521231792, guid: c68a173c3f89b02419d7ee39bc728524, type: 3}
    - {fileID: -1650376392040668576, guid: c68a173c3f89b02419d7ee39bc728524, type: 3}
    - {fileID: 6681334172288162406, guid: c68a173c3f89b02419d7ee39bc728524, type: 3}
    - {fileID: -2295193107172072254, guid: c68a173c3f89b02419d7ee39bc728524, type: 3}
    - {fileID: -6473557824521231792, guid: c68a173c3f89b02419d7ee39bc728524, type: 3}
    - {fileID: -6473557824521231792, guid: c68a173c3f89b02419d7ee39bc728524, type: 3}
    - {fileID: -1650376392040668576, guid: c68a173c3f89b02419d7ee39bc728524, type: 3}
    - {fileID: 6681334172288162406, guid: c68a173c3f89b02419d7ee39bc728524, type: 3}
    - {fileID: -2295193107172072254, guid: c68a173c3f89b02419d7ee39bc728524, type: 3}
    - {fileID: -6473557824521231792, guid: c68a173c3f89b02419d7ee39bc728524, type: 3}
    - {fileID: -3365977132822902718, guid: dc6a6c017abe96b4b831b708530d20cd, type: 3}
    - {fileID: 3188795721837192440, guid: dc6a6c017abe96b4b831b708530d20cd, type: 3}
    - {fileID: -7952276147576875131, guid: dc6a6c017abe96b4b831b708530d20cd, type: 3}
    - {fileID: 3645197879711600937, guid: dc6a6c017abe96b4b831b708530d20cd, type: 3}
    - {fileID: -2130706517953393273, guid: dc6a6c017abe96b4b831b708530d20cd, type: 3}
    - {fileID: 8290146999878644172, guid: dc6a6c017abe96b4b831b708530d20cd, type: 3}
    - {fileID: 4680999986004050565, guid: dc6a6c017abe96b4b831b708530d20cd, type: 3}
    - {fileID: 4682724959437386730, guid: dc6a6c017abe96b4b831b708530d20cd, type: 3}
    - {fileID: -3365977132822902718, guid: dc6a6c017abe96b4b831b708530d20cd, type: 3}
    - {fileID: 3188795721837192440, guid: dc6a6c017abe96b4b831b708530d20cd, type: 3}
    - {fileID: -7952276147576875131, guid: dc6a6c017abe96b4b831b708530d20cd, type: 3}
    - {fileID: 3645197879711600937, guid: dc6a6c017abe96b4b831b708530d20cd, type: 3}
    - {fileID: -2130706517953393273, guid: dc6a6c017abe96b4b831b708530d20cd, type: 3}
    - {fileID: 8290146999878644172, guid: dc6a6c017abe96b4b831b708530d20cd, type: 3}
    - {fileID: 4680999986004050565, guid: dc6a6c017abe96b4b831b708530d20cd, type: 3}
    - {fileID: 4682724959437386730, guid: dc6a6c017abe96b4b831b708530d20cd, type: 3}
    - {fileID: -3365977132822902718, guid: dc6a6c017abe96b4b831b708530d20cd, type: 3}
    - {fileID: -1460364409555501840, guid: 98e0ee9a51008434cb1be66fcc3bff24, type: 3}
    - {fileID: 8950840995329788508, guid: 98e0ee9a51008434cb1be66fcc3bff24, type: 3}
    - {fileID: -4058301550541560650, guid: 98e0ee9a51008434cb1be66fcc3bff24, type: 3}
    - {fileID: 7332986950212590114, guid: 98e0ee9a51008434cb1be66fcc3bff24, type: 3}
    - {fileID: 7902805729382151979, guid: 98e0ee9a51008434cb1be66fcc3bff24, type: 3}
    - {fileID: 5057286346768814841, guid: 98e0ee9a51008434cb1be66fcc3bff24, type: 3}
    - {fileID: -7440443978885688236, guid: 98e0ee9a51008434cb1be66fcc3bff24, type: 3}
    - {fileID: -1363130011324293300, guid: 98e0ee9a51008434cb1be66fcc3bff24, type: 3}
    - {fileID: -3423606718341286874, guid: 98e0ee9a51008434cb1be66fcc3bff24, type: 3}
    - {fileID: 6044360835187743645, guid: 98e0ee9a51008434cb1be66fcc3bff24, type: 3}
    - {fileID: -7523399730589245169, guid: 98e0ee9a51008434cb1be66fcc3bff24, type: 3}
    - {fileID: 2296626378765185888, guid: 98e0ee9a51008434cb1be66fcc3bff24, type: 3}
    - {fileID: 5803345666792567986, guid: 2578bfab043a30541ad55929651355de, type: 3}
    - {fileID: 5803345666792567986, guid: 2578bfab043a30541ad55929651355de, type: 3}
    - {fileID: -8801950490617933804, guid: 2578bfab043a30541ad55929651355de, type: 3}
    - {fileID: 541221249841298073, guid: 2578bfab043a30541ad55929651355de, type: 3}
    - {fileID: 4891337474463002156, guid: 2578bfab043a30541ad55929651355de, type: 3}
    - {fileID: 8285487198893821115, guid: 2578bfab043a30541ad55929651355de, type: 3}
    - {fileID: -1222168954864144280, guid: 2578bfab043a30541ad55929651355de, type: 3}
    - {fileID: -4078153842035546359, guid: 2578bfab043a30541ad55929651355de, type: 3}
    - {fileID: 9213110912436891400, guid: 2578bfab043a30541ad55929651355de, type: 3}
    - {fileID: 2333282614937999559, guid: 2578bfab043a30541ad55929651355de, type: 3}
    - {fileID: 9043137441460536722, guid: 2578bfab043a30541ad55929651355de, type: 3}
    - {fileID: -7355145954161445742, guid: 2578bfab043a30541ad55929651355de, type: 3}
    - {fileID: -6980144058853190642, guid: 2578bfab043a30541ad55929651355de, type: 3}
    - {fileID: 5803345666792567986, guid: 2578bfab043a30541ad55929651355de, type: 3}
    - {fileID: -8801950490617933804, guid: 2578bfab043a30541ad55929651355de, type: 3}
    - {fileID: 541221249841298073, guid: 2578bfab043a30541ad55929651355de, type: 3}
    - {fileID: 4891337474463002156, guid: 2578bfab043a30541ad55929651355de, type: 3}
    - {fileID: 8285487198893821115, guid: 2578bfab043a30541ad55929651355de, type: 3}
    - {fileID: -1222168954864144280, guid: 2578bfab043a30541ad55929651355de, type: 3}
    - {fileID: -4078153842035546359, guid: 2578bfab043a30541ad55929651355de, type: 3}
    - {fileID: 9213110912436891400, guid: 2578bfab043a30541ad55929651355de, type: 3}
    - {fileID: 2333282614937999559, guid: 2578bfab043a30541ad55929651355de, type: 3}
    - {fileID: 9043137441460536722, guid: 2578bfab043a30541ad55929651355de, type: 3}
    - {fileID: -7355145954161445742, guid: 2578bfab043a30541ad55929651355de, type: 3}
    - {fileID: -6980144058853190642, guid: 2578bfab043a30541ad55929651355de, type: 3}
    - {fileID: 3042071122740883093, guid: 9e4e00358d25c1f458d0c0bea43133b3, type: 3}
    - {fileID: 6838512604053251180, guid: 9e4e00358d25c1f458d0c0bea43133b3, type: 3}
    - {fileID: 2416167864093810674, guid: 9e4e00358d25c1f458d0c0bea43133b3, type: 3}
    - {fileID: 2041825766940719570, guid: 9e4e00358d25c1f458d0c0bea43133b3, type: 3}
    - {fileID: -6997860408571361445, guid: 9e4e00358d25c1f458d0c0bea43133b3, type: 3}
    - {fileID: -7536160356129601582, guid: 9e4e00358d25c1f458d0c0bea43133b3, type: 3}
    - {fileID: -6124730705796828550, guid: 9e4e00358d25c1f458d0c0bea43133b3, type: 3}
    - {fileID: 901643224775580036, guid: 9e4e00358d25c1f458d0c0bea43133b3, type: 3}
    - {fileID: 3042071122740883093, guid: 9e4e00358d25c1f458d0c0bea43133b3, type: 3}
    - {fileID: 6838512604053251180, guid: 9e4e00358d25c1f458d0c0bea43133b3, type: 3}
    - {fileID: 2416167864093810674, guid: 9e4e00358d25c1f458d0c0bea43133b3, type: 3}
    - {fileID: 2041825766940719570, guid: 9e4e00358d25c1f458d0c0bea43133b3, type: 3}
    - {fileID: -6997860408571361445, guid: 9e4e00358d25c1f458d0c0bea43133b3, type: 3}
    - {fileID: -7536160356129601582, guid: 9e4e00358d25c1f458d0c0bea43133b3, type: 3}
    - {fileID: -6124730705796828550, guid: 9e4e00358d25c1f458d0c0bea43133b3, type: 3}
    - {fileID: 901643224775580036, guid: 9e4e00358d25c1f458d0c0bea43133b3, type: 3}
    - {fileID: 5803345666792567986, guid: 2578bfab043a30541ad55929651355de, type: 3}
    - {fileID: 2296626378765185888, guid: 98e0ee9a51008434cb1be66fcc3bff24, type: 3}
    - {fileID: -7523399730589245169, guid: 98e0ee9a51008434cb1be66fcc3bff24, type: 3}
    - {fileID: 6044360835187743645, guid: 98e0ee9a51008434cb1be66fcc3bff24, type: 3}
    - {fileID: -3423606718341286874, guid: 98e0ee9a51008434cb1be66fcc3bff24, type: 3}
    - {fileID: -1363130011324293300, guid: 98e0ee9a51008434cb1be66fcc3bff24, type: 3}
    - {fileID: -7440443978885688236, guid: 98e0ee9a51008434cb1be66fcc3bff24, type: 3}
    - {fileID: 5057286346768814841, guid: 98e0ee9a51008434cb1be66fcc3bff24, type: 3}
    - {fileID: 7902805729382151979, guid: 98e0ee9a51008434cb1be66fcc3bff24, type: 3}
    - {fileID: 7332986950212590114, guid: 98e0ee9a51008434cb1be66fcc3bff24, type: 3}
    - {fileID: -4058301550541560650, guid: 98e0ee9a51008434cb1be66fcc3bff24, type: 3}
    - {fileID: 8950840995329788508, guid: 98e0ee9a51008434cb1be66fcc3bff24, type: 3}
    - {fileID: -1460364409555501840, guid: 98e0ee9a51008434cb1be66fcc3bff24, type: 3}
  m_AnimationClipSettings:
    serializedVersion: 2
    m_AdditiveReferencePoseClip: {fileID: 0}
    m_AdditiveReferencePoseTime: 0
    m_StartTime: 0
    m_StopTime: 8.666666
    m_OrientationOffsetY: 0
    m_Level: 0
    m_CycleOffset: 0
    m_HasAdditiveReferencePose: 0
    m_LoopTime: 1
    m_LoopBlend: 0
    m_LoopBlendOrientation: 0
    m_LoopBlendPositionY: 0
    m_LoopBlendPositionXZ: 0
    m_KeepOriginalOrientation: 0
    m_KeepOriginalPositionY: 1
    m_KeepOriginalPositionXZ: 0
    m_HeightFromFeet: 0
    m_Mirror: 0
  m_EditorCurves: []
  m_EulerEditorCurves: []
  m_HasGenericRootTransform: 0
  m_HasMotionFloatCurves: 0
  m_Events: []
